{
    "$schema": "http://json-schema.org/draft-07/schema",
    "$id": "/ProductService/product/{id}",
    "type": "object",
    "title": "The root schema",
    "description": "The root schema comprises the entire JSON document.",
    "default": {},
    "examples": [
        {
            "auto_No": 1,
            "productName": "Latest Findings on Hydrogen Water",
            "productDesc": "Lorem ipsum dolor sit amet, consectetur adipiscing elit, sed do eiusmod tempor incididunt ut labore.",
            "productPrice": 15,
            "productRemark": "Include Delivery",
            "category": 1,
            "deleteDate": "2021-04-10T03:06:48",
            "deleteBy": 1,
            "createDate": "2021-04-10T03:06:48",
            "createBy": 1,
            "lastUpdate": "2021-04-10T03:06:48",
            "lastUpdateBy": 1
        }
    ],
    "required": [
        "auto_No",
        "productName",
        "productDesc",
        "productPrice",
        "productRemark",
        "category",
        "deleteDate",
        "deleteBy",
        "createDate",
        "createBy",
        "lastUpdate",
        "lastUpdateBy"
    ],
    "properties": {
        "auto_No": {
            "$id": "#/properties/auto_No",
            "type": "integer",
            "title": "The auto_No schema",
            "description": "Product ID",
            "default": 0,
            "examples": [
                1
            ]
        },
        "productName": {
            "$id": "#/properties/productName",
            "type": "string",
            "title": "The productName schema",
            "description": "Product Name",
            "default": "",
            "examples": [
                "Latest Findings on Hydrogen Water"
            ]
        },
        "productDesc": {
            "$id": "#/properties/productDesc",
            "type": "string",
            "title": "The productDesc schema",
            "description": "Product Description",
            "default": "",
            "examples": [
                "Lorem ipsum dolor sit amet, consectetur adipiscing elit, sed do eiusmod tempor incididunt ut labore."
            ]
        },
        "productPrice": {
            "$id": "#/properties/productPrice",
            "type": "integer",
            "title": "The productPrice schema",
            "description": "Price",
            "default": 0,
            "examples": [
                15
            ]
        },
        "productRemark": {
            "$id": "#/properties/productRemark",
            "type": "string",
            "title": "The productRemark schema",
            "description": "Remark",
            "default": "",
            "examples": [
                "Include Delivery"
            ]
        },
        "category": {
            "$id": "#/properties/category",
            "type": "integer",
            "title": "The category schema",
            "description": "Category ID",
            "default": 0,
            "examples": [
                1
            ]
        },
        "deleteDate": {
            "$id": "#/properties/deleteDate",
            "type": "string",
            "title": "The deleteDate schema",
            "description": "Delete DAte",
            "default": null,
            "examples": [
                "2021-04-10T03:06:48",null
            ]
        },
        "deleteBy": {
            "$id": "#/properties/deleteBy",
            "type": "integer",
            "title": "The deleteBy schema",
            "description": "User ID who deleted this",
            "default": null,
            "examples": [
                1,null
            ]
        },
        "createDate": {
            "$id": "#/properties/createDate",
            "type": "string",
            "title": "The createDate schema",
            "description": "Created Date",
            "default": "",
            "examples": [
                "2021-04-10T03:06:48"
            ]
        },
        "createBy": {
            "$id": "#/properties/createBy",
            "type": "integer",
            "title": "The createBy schema",
            "description": "User ID who created this",
            "default": 0,
            "examples": [
                1
            ]
        },
        "lastUpdate": {
            "$id": "#/properties/lastUpdate",
            "type": "string",
            "title": "The lastUpdate schema",
            "description": "Last Updated Date",
            "default": null,
            "examples": [
                "2021-04-10T03:06:48",null
            ]
        },
        "lastUpdateBy": {
            "$id": "#/properties/lastUpdateBy",
            "type": "integer",
            "title": "The lastUpdateBy schema",
            "description": "User ID who last updated this",
            "default": null,
            "examples": [
                1,null
            ]
        }
    },
    "additionalProperties": true
}