<svg xmlns="http://www.w3.org/2000/svg" xmlns:xlink="http://www.w3.org/1999/xlink" width="375" height="812" viewBox="0 0 375 812">
  <defs>
    <filter id="button_big" x="12" y="716" width="351" height="68" filterUnits="userSpaceOnUse">
      <feOffset dy="3" input="SourceAlpha"/>
      <feGaussianBlur stdDeviation="3" result="blur"/>
      <feFlood flood-color="#0095cf" flood-opacity="0.4"/>
      <feComposite operator="in" in2="blur"/>
      <feComposite in="SourceGraphic"/>
    </filter>
    <clipPath id="clip-Artboard_11">
      <rect width="375" height="812"/>
    </clipPath>
  </defs>
  <g id="Artboard_11" data-name="Artboard – 11" clip-path="url(#clip-Artboard_11)">
    <rect width="375" height="812" fill="#fff"/>
    <g id="Group_184" data-name="Group 184">
      <rect id="Rectangle_416" data-name="Rectangle 416" width="375" height="812" fill="#f2f2f3"/>
      <g id="Component_40_47" data-name="Component 40 – 47" transform="translate(21 722)">
        <g transform="matrix(1, 0, 0, 1, -21, -722)" filter="url(#button_big)">
          <rect id="button_big-2" data-name="button / big" width="333" height="50" rx="10" transform="translate(21 722)" fill="#0095cf"/>
        </g>
        <text id="Add" transform="translate(166.5 31)" fill="#fff" font-size="18" font-family="NiveauGroteskBold, Niveau Grotesk"><tspan x="-16.812" y="0">Add</tspan></text>
      </g>
      <rect id="selection_container" data-name="selection / container" width="345" height="104" rx="7" transform="translate(15 108)" fill="#fff"/>
      <rect id="selection_container-2" data-name="selection / container" width="345" height="104" rx="7" transform="translate(15 217)" fill="#fff"/>
      <g id="Component_32_42" data-name="Component 32 – 42" transform="translate(30 156)">
        <text id="S212_Level_2_The_Starling_Mall_No_6_Jalan_SS_21_37_Damansara_Uptown_12345_Selangor." data-name="S212 Level 2, The Starling Mall, No 6 Jalan SS 21 /37, Damansara Uptown, 12345 Selangor." fill="#161640" font-size="15" font-family="NiveauGroteskRegular, Niveau Grotesk"><tspan x="0" y="14">S212 Level 2, The Starling Mall, No 6 Jalan SS 21 /</tspan><tspan x="0" y="32">37, Damansara Uptown, 12345 Selangor.</tspan></text>
      </g>
      <g id="Component_32_43" data-name="Component 32 – 43" transform="translate(30 265)">
        <text id="S212_Level_2_The_Starling_Mall_No_6_Jalan_SS_21_37_Damansara_Uptown_12345_Selangor.-2" data-name="S212 Level 2, The Starling Mall, No 6 Jalan SS 21 /37, Damansara Uptown, 12345 Selangor." fill="#161640" font-size="15" font-family="NiveauGroteskRegular, Niveau Grotesk"><tspan x="0" y="14">S212 Level 2, The Starling Mall, No 6 Jalan SS 21 /</tspan><tspan x="0" y="32">37, Damansara Uptown, 12345 Selangor.</tspan></text>
      </g>
      <g id="Group_650" data-name="Group 650" transform="translate(14 7)">
        <rect id="Rectangle_695" data-name="Rectangle 695" width="64" height="20" rx="2" transform="translate(128 121)" fill="#0189ca"/>
        <g id="Component_32_44" data-name="Component 32 – 44" transform="translate(136 122)">
          <text id="Primary" transform="translate(0 14)" fill="#fff" font-size="15" font-family="NiveauGroteskRegular, Niveau Grotesk"><tspan x="0" y="0">Primary</tspan></text>
        </g>
      </g>
      <g id="Component_55_26" data-name="Component 55 – 26" transform="translate(30 128)">
        <text id="Address_No._1" data-name="Address No. 1" transform="translate(0 16)" fill="#161640" font-size="17" font-family="NiveauGroteskBold, Niveau Grotesk"><tspan x="0" y="0">Address No. 1</tspan></text>
      </g>
      <g id="Component_55_27" data-name="Component 55 – 27" transform="translate(30 237)">
        <text id="Address_No._2" data-name="Address No. 2" transform="translate(0 16)" fill="#161640" font-size="17" font-family="NiveauGroteskBold, Niveau Grotesk"><tspan x="0" y="0">Address No. 2</tspan></text>
      </g>
      <g id="_2_header" data-name="2 / header">
        <rect id="Rectangle_332" data-name="Rectangle 332" width="375" height="88" fill="#161640"/>
        <g id="_2_text_header_2" data-name="2 / text / header 2" transform="translate(153 54)">
          <text id="Address" transform="translate(35 19)" fill="#fff" font-size="20" font-family="NiveauGroteskBold, Niveau Grotesk"><tspan x="-35.4" y="0">Address</tspan></text>
        </g>
        <g id="_2_icon_back" data-name="2 / icon / back" transform="translate(11 36)">
          <rect id="Rectangle_361" data-name="Rectangle 361" width="52" height="52" fill="#161640"/>
          <path id="ic_keyboard_arrow_right_24px" d="M8.59,23.4l7.633-7.65L8.59,8.1l2.35-2.35,10,10-10,10Z" transform="translate(41 42.041) rotate(180)" fill="#fff"/>
        </g>
        <g id="status-bar" transform="translate(-2 -7)">
          <g id="Battery" transform="translate(337.897 18.333)">
            <rect id="Rectangle" width="22" height="11.333" rx="2.667" fill="#fff" opacity="0.35"/>
            <path id="Combined_Shape" data-name="Combined Shape" d="M0,0V4A2.17,2.17,0,0,0,1.328,2,2.17,2.17,0,0,0,0,0" transform="translate(23 3.667)" fill="#fff" opacity="0.4"/>
            <rect id="Rectangle-2" data-name="Rectangle" width="18" height="7.333" rx="1.333" transform="translate(2 2)" fill="#ffd800"/>
          </g>
          <path id="Wifi" d="M7.415,10.873l-2-2.016a.313.313,0,0,1,.01-.456,3.421,3.421,0,0,1,4.419,0,.31.31,0,0,1,.1.226.315.315,0,0,1-.094.23l-2,2.016a.311.311,0,0,1-.443,0Zm3.515-3.53a4.9,4.9,0,0,0-6.585,0,.311.311,0,0,1-.434-.006L2.758,6.17a.322.322,0,0,1,0-.459,7.158,7.158,0,0,1,9.752,0,.322.322,0,0,1,.005.459L11.364,7.337a.311.311,0,0,1-.434.006Zm2.66-2.687a8.64,8.64,0,0,0-11.907,0,.309.309,0,0,1-.434,0L.094,3.486a.322.322,0,0,1,0-.456,10.9,10.9,0,0,1,15.08,0,.323.323,0,0,1,0,.456L14.023,4.652a.307.307,0,0,1-.433,0Z" transform="translate(317.591 18.331)" fill="#fff"/>
          <path id="Mobile_Signal" data-name="Mobile Signal" d="M15,10.667a1,1,0,0,1-1-1V1a1,1,0,0,1,1-1h1a1,1,0,0,1,1,1V9.667a1,1,0,0,1-1,1Zm-4.667,0a1,1,0,0,1-1-1V3.334a1,1,0,0,1,1-1h1a1,1,0,0,1,1,1V9.667a1,1,0,0,1-1,1Zm-4.667,0a1,1,0,0,1-1-1v-4a1,1,0,0,1,1-1h1a1,1,0,0,1,1,1v4a1,1,0,0,1-1,1ZM1,10.667a1,1,0,0,1-1-1v-2a1,1,0,0,1,1-1H2a1,1,0,0,1,1,1v2a1,1,0,0,1-1,1Z" transform="translate(295.564 18.667)" fill="#fff"/>
          <g id="Time_Style" data-name="Time Style" transform="translate(18.5 15)">
            <text id="_9:41" data-name="9:41" fill="#fff" font-size="15" font-family="Soleil-Regular, Soleil" letter-spacing="-0.02em"><tspan x="-12.57" y="12">9:41</tspan></text>
          </g>
        </g>
        <g id="_2_icon_back-2" data-name="2 / icon / back" transform="translate(314 40)">
          <rect id="Rectangle_361-2" data-name="Rectangle 361" width="48" height="48" fill="#161640"/>
          <path id="ic_delete_24px" d="M6,19a2.006,2.006,0,0,0,2,2h8a2.006,2.006,0,0,0,2-2V7H6ZM19,4H15.5l-1-1h-5l-1,1H5V6H19Z" transform="translate(12 12)" fill="#fff"/>
        </g>
      </g>
    </g>
  </g>
</svg>
