<svg xmlns="http://www.w3.org/2000/svg" xmlns:xlink="http://www.w3.org/1999/xlink" width="375" height="812" viewBox="0 0 375 812">
  <defs>
    <clipPath id="clip-path">
      <rect id="Rectangle_399" data-name="Rectangle 399" width="375" height="812" fill="#fff" stroke="#707070" stroke-width="1"/>
    </clipPath>
    <filter id="icon_toggle-ball" x="323" y="104" width="44" height="44" filterUnits="userSpaceOnUse">
      <feOffset dy="3" input="SourceAlpha"/>
      <feGaussianBlur stdDeviation="3" result="blur"/>
      <feFlood flood-opacity="0.161"/>
      <feComposite operator="in" in2="blur"/>
      <feComposite in="SourceGraphic"/>
    </filter>
    <clipPath id="clip-Artboard_7">
      <rect width="375" height="812"/>
    </clipPath>
  </defs>
  <g id="Artboard_7" data-name="Artboard – 7" clip-path="url(#clip-Artboard_7)">
    <rect width="375" height="812" fill="#fff"/>
    <g id="Mask_Group_8" data-name="Mask Group 8" clip-path="url(#clip-path)">
      <g id="Rectangle_400" data-name="Rectangle 400" fill="#ededf0" stroke="#707070" stroke-width="1">
        <rect width="375" height="812" stroke="none"/>
        <rect x="0.5" y="0.5" width="374" height="811" fill="none"/>
      </g>
      <g id="_2_header" data-name="2 / header">
        <rect id="Rectangle_332" data-name="Rectangle 332" width="375" height="88" fill="#161640"/>
        <g id="_2_text_header_2" data-name="2 / text / header 2" transform="translate(137 54)">
          <text id="Notification" transform="translate(51 19)" fill="#fff" font-size="20" font-family="NiveauGroteskBold, Niveau Grotesk"><tspan x="-50.65" y="0">Notification</tspan></text>
        </g>
        <g id="_2_icon_back" data-name="2 / icon / back" transform="translate(11 36)">
          <rect id="Rectangle_361" data-name="Rectangle 361" width="52" height="52" fill="#161640"/>
          <path id="ic_keyboard_arrow_right_24px" d="M8.59,23.4l7.633-7.65L8.59,8.1l2.35-2.35,10,10-10,10Z" transform="translate(41 42.041) rotate(180)" fill="#fff"/>
        </g>
        <g id="status-bar" transform="translate(-2 -7)">
          <g id="Battery" transform="translate(337.897 18.333)">
            <rect id="Rectangle" width="22" height="11.333" rx="2.667" fill="#fff" opacity="0.35"/>
            <path id="Combined_Shape" data-name="Combined Shape" d="M0,0V4A2.17,2.17,0,0,0,1.328,2,2.17,2.17,0,0,0,0,0" transform="translate(23 3.667)" fill="#fff" opacity="0.4"/>
            <rect id="Rectangle-2" data-name="Rectangle" width="18" height="7.333" rx="1.333" transform="translate(2 2)" fill="#ffd800"/>
          </g>
          <path id="Wifi" d="M7.415,10.873l-2-2.016a.313.313,0,0,1,.01-.456,3.421,3.421,0,0,1,4.419,0,.31.31,0,0,1,.1.226.315.315,0,0,1-.094.23l-2,2.016a.311.311,0,0,1-.443,0Zm3.515-3.53a4.9,4.9,0,0,0-6.585,0,.311.311,0,0,1-.434-.006L2.758,6.17a.322.322,0,0,1,0-.459,7.158,7.158,0,0,1,9.752,0,.322.322,0,0,1,.005.459L11.364,7.337a.311.311,0,0,1-.434.006Zm2.66-2.687a8.64,8.64,0,0,0-11.907,0,.309.309,0,0,1-.434,0L.094,3.486a.322.322,0,0,1,0-.456,10.9,10.9,0,0,1,15.08,0,.323.323,0,0,1,0,.456L14.023,4.652a.307.307,0,0,1-.433,0Z" transform="translate(317.591 18.331)" fill="#fff"/>
          <path id="Mobile_Signal" data-name="Mobile Signal" d="M15,10.667a1,1,0,0,1-1-1V1a1,1,0,0,1,1-1h1a1,1,0,0,1,1,1V9.667a1,1,0,0,1-1,1Zm-4.667,0a1,1,0,0,1-1-1V3.334a1,1,0,0,1,1-1h1a1,1,0,0,1,1,1V9.667a1,1,0,0,1-1,1Zm-4.667,0a1,1,0,0,1-1-1v-4a1,1,0,0,1,1-1h1a1,1,0,0,1,1,1v4a1,1,0,0,1-1,1ZM1,10.667a1,1,0,0,1-1-1v-2a1,1,0,0,1,1-1H2a1,1,0,0,1,1,1v2a1,1,0,0,1-1,1Z" transform="translate(295.564 18.667)" fill="#fff"/>
          <g id="Time_Style" data-name="Time Style" transform="translate(18.5 15)">
            <text id="_9:41" data-name="9:41" fill="#fff" font-size="15" font-family="Soleil-Regular, Soleil" letter-spacing="-0.02em"><tspan x="-12.57" y="12">9:41</tspan></text>
          </g>
        </g>
      </g>
      <g id="toggle" transform="translate(307 108)">
        <path id="icon_toggle-bar" data-name="icon / toggle-bar" d="M15,0H38a15,15,0,0,1,0,30H15A15,15,0,0,1,15,0Z" fill="#07bf00"/>
        <g transform="matrix(1, 0, 0, 1, -307, -108)" filter="url(#icon_toggle-ball)">
          <rect id="icon_toggle-ball-2" data-name="icon / toggle-ball" width="26" height="26" rx="13" transform="translate(332 110)" fill="#fff"/>
        </g>
      </g>
      <g id="Component_55_24" data-name="Component 55 – 24" transform="translate(15 113)">
        <text id="Message_Notification" data-name="Message Notification" transform="translate(0 16)" fill="#161640" font-size="17" font-family="NiveauGroteskMedium, Niveau Grotesk"><tspan x="0" y="0">Message Notification</tspan></text>
      </g>
    </g>
  </g>
</svg>
