<svg xmlns="http://www.w3.org/2000/svg" xmlns:xlink="http://www.w3.org/1999/xlink" width="375" height="812" viewBox="0 0 375 812">
  <defs>
    <linearGradient id="linear-gradient" x2="1" y2="1" gradientUnits="objectBoundingBox">
      <stop offset="0" stop-color="#f7f7f8"/>
      <stop offset="1" stop-color="#ededf0"/>
    </linearGradient>
    <linearGradient id="linear-gradient-2" y1="0.5" x2="1" y2="0.5" gradientUnits="objectBoundingBox">
      <stop offset="0" stop-color="#5bb7f2"/>
      <stop offset="1" stop-color="#037fce"/>
    </linearGradient>
    <linearGradient id="linear-gradient-3" x1="0.5" x2="0.5" y2="1" gradientUnits="objectBoundingBox">
      <stop offset="0" stop-color="#0093ce"/>
      <stop offset="1" stop-color="#027fcd"/>
    </linearGradient>
    <filter id="navi-bottom_bar" x="-15" y="708" width="405" height="116" filterUnits="userSpaceOnUse">
      <feOffset dy="-3" input="SourceAlpha"/>
      <feGaussianBlur stdDeviation="5" result="blur"/>
      <feFlood flood-opacity="0.161"/>
      <feComposite operator="in" in2="blur"/>
      <feComposite in="SourceGraphic"/>
    </filter>
    <clipPath id="clip-My_Revenue">
      <rect width="375" height="812"/>
    </clipPath>
  </defs>
  <g id="My_Revenue" data-name="My Revenue" clip-path="url(#clip-My_Revenue)">
    <rect width="375" height="812" fill="url(#linear-gradient)"/>
    <rect id="Rectangle_372" data-name="Rectangle 372" width="375" height="81" transform="translate(0 53)" fill="#161640"/>
    <rect id="Rectangle_694" data-name="Rectangle 694" width="162" height="3" rx="1.5" transform="translate(21 130)" fill="#fff"/>
    <g id="Component_55_12" data-name="Component 55 – 12" transform="translate(71 101)">
      <text id="Pending" transform="translate(31 16)" fill="#fff" font-size="17" font-family="NiveauGroteskBold, Niveau Grotesk"><tspan x="-31.051" y="0">Pending</tspan></text>
    </g>
    <g id="Component_55_13" data-name="Component 55 – 13" transform="translate(240 101)">
      <text id="Received" transform="translate(34 16)" fill="#fff" font-size="17" font-family="NiveauGroteskRegular, Niveau Grotesk"><tspan x="-33.779" y="0">Received</tspan></text>
    </g>
    <g id="_2_header" data-name="2 / header">
      <path id="Rectangle_332" data-name="Rectangle 332" d="M0,0H375a0,0,0,0,1,0,0V78a10,10,0,0,1-10,10H10A10,10,0,0,1,0,78V0A0,0,0,0,1,0,0Z" fill="#161640"/>
      <g id="_2_text_header_2" data-name="2 / text / header 2" transform="translate(153 54)">
        <text id="Account" transform="translate(0 19)" fill="#fff" font-size="20" font-family="NiveauGroteskBold, Niveau Grotesk"><tspan x="0" y="0">Account</tspan></text>
      </g>
      <g id="_2_icon_back" data-name="2 / icon / back" transform="translate(312 36)">
        <rect id="Rectangle_361" data-name="Rectangle 361" width="52" height="52" fill="#161640"/>
        <path id="ic_settings_24px" d="M19.43,12.98A7.793,7.793,0,0,0,19.5,12a7.793,7.793,0,0,0-.07-.98l2.11-1.65a.5.5,0,0,0,.12-.64l-2-3.46a.5.5,0,0,0-.61-.22l-2.49,1a7.306,7.306,0,0,0-1.69-.98l-.38-2.65A.488.488,0,0,0,14,2H10a.488.488,0,0,0-.49.42L9.13,5.07a7.683,7.683,0,0,0-1.69.98l-2.49-1a.488.488,0,0,0-.61.22l-2,3.46a.493.493,0,0,0,.12.64l2.11,1.65A7.931,7.931,0,0,0,4.5,12a7.931,7.931,0,0,0,.07.98L2.46,14.63a.5.5,0,0,0-.12.64l2,3.46a.5.5,0,0,0,.61.22l2.49-1a7.306,7.306,0,0,0,1.69.98l.38,2.65A.488.488,0,0,0,10,22h4a.488.488,0,0,0,.49-.42l.38-2.65a7.683,7.683,0,0,0,1.69-.98l2.49,1a.488.488,0,0,0,.61-.22l2-3.46a.5.5,0,0,0-.12-.64ZM12,15.5A3.5,3.5,0,1,1,15.5,12,3.5,3.5,0,0,1,12,15.5Z" transform="translate(13.73 14)" fill="#fff"/>
      </g>
      <g id="status-bar" transform="translate(-2 -7)">
        <g id="Battery" transform="translate(337.897 18.333)">
          <rect id="Rectangle" width="22" height="11.333" rx="2.667" fill="#fff" opacity="0.35"/>
          <path id="Combined_Shape" data-name="Combined Shape" d="M0,0V4A2.17,2.17,0,0,0,1.328,2,2.17,2.17,0,0,0,0,0" transform="translate(23 3.667)" fill="#fff" opacity="0.4"/>
          <rect id="Rectangle-2" data-name="Rectangle" width="18" height="7.333" rx="1.333" transform="translate(2 2)" fill="#ffd800"/>
        </g>
        <path id="Wifi" d="M7.415,10.873l-2-2.016a.313.313,0,0,1,.01-.456,3.421,3.421,0,0,1,4.419,0,.31.31,0,0,1,.1.226.315.315,0,0,1-.094.23l-2,2.016a.311.311,0,0,1-.443,0Zm3.515-3.53a4.9,4.9,0,0,0-6.585,0,.311.311,0,0,1-.434-.006L2.758,6.17a.322.322,0,0,1,0-.459,7.158,7.158,0,0,1,9.752,0,.322.322,0,0,1,.005.459L11.364,7.337a.311.311,0,0,1-.434.006Zm2.66-2.687a8.64,8.64,0,0,0-11.907,0,.309.309,0,0,1-.434,0L.094,3.486a.322.322,0,0,1,0-.456,10.9,10.9,0,0,1,15.08,0,.323.323,0,0,1,0,.456L14.023,4.652a.307.307,0,0,1-.433,0Z" transform="translate(317.591 18.331)" fill="#fff"/>
        <path id="Mobile_Signal" data-name="Mobile Signal" d="M15,10.667a1,1,0,0,1-1-1V1a1,1,0,0,1,1-1h1a1,1,0,0,1,1,1V9.667a1,1,0,0,1-1,1Zm-4.667,0a1,1,0,0,1-1-1V3.334a1,1,0,0,1,1-1h1a1,1,0,0,1,1,1V9.667a1,1,0,0,1-1,1Zm-4.667,0a1,1,0,0,1-1-1v-4a1,1,0,0,1,1-1h1a1,1,0,0,1,1,1v4a1,1,0,0,1-1,1ZM1,10.667a1,1,0,0,1-1-1v-2a1,1,0,0,1,1-1H2a1,1,0,0,1,1,1v2a1,1,0,0,1-1,1Z" transform="translate(295.564 18.667)" fill="#fff"/>
        <g id="Time_Style" data-name="Time Style" transform="translate(18.5 15)">
          <text id="_9:41" data-name="9:41" fill="#fff" font-size="15" font-family="Soleil-Regular, Soleil" letter-spacing="-0.02em"><tspan x="-12.57" y="12">9:41</tspan></text>
        </g>
      </g>
    </g>
    <g id="Group_495" data-name="Group 495" transform="translate(0 10)">
      <rect id="selection_container" data-name="selection / container" width="355" height="118" rx="7" transform="translate(10 144)" fill="#fff"/>
      <text id="RM_280.00" data-name="RM 280.00" transform="translate(30 208)" fill="#161640" font-size="30" font-family="NiveauGroteskBold, Niveau Grotesk"><tspan x="0" y="0">RM 280.00</tspan></text>
      <text id="My_Revenue-2" data-name="My Revenue" transform="translate(30 154)" fill="#161640" font-size="15" font-family="NiveauGroteskMedium, Niveau Grotesk"><tspan x="0" y="14">My Revenue</tspan></text>
      <rect id="Rectangle_622" data-name="Rectangle 622" width="315" height="11" rx="5.5" transform="translate(30 225)" fill="#e3e3e5"/>
      <rect id="Rectangle_623" data-name="Rectangle 623" width="263" height="11" rx="5.5" transform="translate(30 225)" fill="url(#linear-gradient-2)"/>
      <text id="Next_payout:_28_Feb_2021" data-name="Next payout: 28 Feb 2021" transform="translate(345 252)" fill="#161640" font-size="12" font-family="NiveauGroteskRegular, Niveau Grotesk"><tspan x="-129.012" y="0">Next payout: 28 Feb 2021</tspan></text>
    </g>
    <g id="Group_496" data-name="Group 496" transform="translate(0 155)">
      <g id="Group_507" data-name="Group 507" transform="translate(5)">
        <text id="MYSL-OAT-12346" transform="translate(68 167)" fill="#161640" font-size="15" font-family="NiveauGroteskBold, Niveau Grotesk"><tspan x="0" y="14">MYSL-OAT-12346</tspan></text>
        <text id="_12:30pm" data-name="12:30pm" transform="translate(68 196)" fill="#161640" font-size="12" font-family="NiveauGroteskRegular, Niveau Grotesk"><tspan x="0" y="0">12:30pm</tspan></text>
      </g>
      <text id="RM_20.00" data-name="RM 20.00" transform="translate(284 189)" fill="#0095cf" font-size="17" font-family="NiveauGroteskBold, Niveau Grotesk"><tspan x="0" y="0">RM 20.00</tspan></text>
      <g id="Group_503" data-name="Group 503">
        <g id="Group_499" data-name="Group 499">
          <rect id="Rectangle_621" data-name="Rectangle 621" width="38" height="38" rx="19" transform="translate(20 164)" fill="url(#linear-gradient-3)"/>
        </g>
        <path id="ic_call_made_24px" d="M8.667,5V6.867h6.151L4,17.684,5.316,19,16.133,8.183v6.151H18V5Z" transform="translate(28 171)" fill="#fff"/>
      </g>
    </g>
    <g id="Group_515" data-name="Group 515" transform="translate(0 347)">
      <g id="Group_707" data-name="Group 707" transform="translate(5 1)">
        <text id="MYSL-OAT-12345" transform="translate(68 167)" fill="#161640" font-size="15" font-family="NiveauGroteskBold, Niveau Grotesk"><tspan x="0" y="14">MYSL-OAT-12345</tspan></text>
        <text id="_12:30pm-2" data-name="12:30pm" transform="translate(68 196)" fill="#161640" font-size="12" font-family="NiveauGroteskRegular, Niveau Grotesk"><tspan x="0" y="0">12:30pm</tspan></text>
      </g>
      <text id="RM_20.00-2" data-name="RM 20.00" transform="translate(284 189)" fill="#0095cf" font-size="17" font-family="NiveauGroteskBold, Niveau Grotesk"><tspan x="0" y="0">RM 20.00</tspan></text>
      <g id="Group_711" data-name="Group 711" transform="translate(0 1)">
        <g id="Group_499-2" data-name="Group 499">
          <rect id="Rectangle_621-2" data-name="Rectangle 621" width="38" height="38" rx="19" transform="translate(20 164)" fill="url(#linear-gradient-3)"/>
        </g>
        <path id="ic_call_made_24px-2" data-name="ic_call_made_24px" d="M8.667,5V6.867h6.151L4,17.684,5.316,19,16.133,8.183v6.151H18V5Z" transform="translate(28 171)" fill="#fff"/>
      </g>
    </g>
    <g id="Group_500" data-name="Group 500" transform="translate(0 208)">
      <g id="Group_508" data-name="Group 508" transform="translate(5)">
        <text id="MYSL-OAT-12345-2" data-name="MYSL-OAT-12345" transform="translate(68 167)" fill="#161640" font-size="15" font-family="NiveauGroteskBold, Niveau Grotesk"><tspan x="0" y="14">MYSL-OAT-12345</tspan></text>
        <text id="_10:30am" data-name="10:30am" transform="translate(68 196)" fill="#161640" font-size="12" font-family="NiveauGroteskRegular, Niveau Grotesk"><tspan x="0" y="0">10:30am</tspan></text>
      </g>
      <text id="RM_20.00-3" data-name="RM 20.00" transform="translate(284 189)" fill="#0095cf" font-size="17" font-family="NiveauGroteskBold, Niveau Grotesk"><tspan x="0" y="0">RM 20.00</tspan></text>
      <g id="Group_709" data-name="Group 709">
        <g id="Group_499-3" data-name="Group 499">
          <rect id="Rectangle_621-3" data-name="Rectangle 621" width="38" height="38" rx="19" transform="translate(20 164)" fill="url(#linear-gradient-3)"/>
        </g>
        <path id="ic_call_made_24px-3" data-name="ic_call_made_24px" d="M8.667,5V6.867h6.151L4,17.684,5.316,19,16.133,8.183v6.151H18V5Z" transform="translate(28 171)" fill="#fff"/>
      </g>
    </g>
    <g id="Group_514" data-name="Group 514" transform="translate(0 400)">
      <g id="Group_708" data-name="Group 708" transform="translate(5 1)">
        <text id="MYSL-OAT-12345-3" data-name="MYSL-OAT-12345" transform="translate(68 167)" fill="#161640" font-size="15" font-family="NiveauGroteskBold, Niveau Grotesk"><tspan x="0" y="14">MYSL-OAT-12345</tspan></text>
        <text id="_04:30pm" data-name="04:30pm" transform="translate(68 196)" fill="#161640" font-size="12" font-family="NiveauGroteskRegular, Niveau Grotesk"><tspan x="0" y="0">04:30pm</tspan></text>
      </g>
      <text id="RM_20.00-4" data-name="RM 20.00" transform="translate(284 189)" fill="#0095cf" font-size="17" font-family="NiveauGroteskBold, Niveau Grotesk"><tspan x="0" y="0">RM 20.00</tspan></text>
      <g id="Group_712" data-name="Group 712" transform="translate(0 1)">
        <g id="Group_499-4" data-name="Group 499">
          <rect id="Rectangle_621-4" data-name="Rectangle 621" width="38" height="38" rx="19" transform="translate(20 164)" fill="url(#linear-gradient-3)"/>
        </g>
        <path id="ic_call_made_24px-4" data-name="ic_call_made_24px" d="M8.667,5V6.867h6.151L4,17.684,5.316,19,16.133,8.183v6.151H18V5Z" transform="translate(28 171)" fill="#fff"/>
      </g>
    </g>
    <g id="Group_502" data-name="Group 502" transform="translate(0 294)">
      <g id="Group_706" data-name="Group 706" transform="translate(5 1)">
        <text id="MYSL-OAT-12345-4" data-name="MYSL-OAT-12345" transform="translate(68 167)" fill="#161640" font-size="15" font-family="NiveauGroteskBold, Niveau Grotesk"><tspan x="0" y="14">MYSL-OAT-12345</tspan></text>
        <text id="_04:30pm-2" data-name="04:30pm" transform="translate(68 196)" fill="#161640" font-size="12" font-family="NiveauGroteskRegular, Niveau Grotesk"><tspan x="0" y="0">04:30pm</tspan></text>
      </g>
      <text id="RM_20.00-5" data-name="RM 20.00" transform="translate(284 190)" fill="#0095cf" font-size="17" font-family="NiveauGroteskBold, Niveau Grotesk"><tspan x="0" y="0">RM 20.00</tspan></text>
      <g id="Group_710" data-name="Group 710" transform="translate(0 1)">
        <g id="Group_499-5" data-name="Group 499">
          <rect id="Rectangle_621-5" data-name="Rectangle 621" width="38" height="38" rx="19" transform="translate(20 164)" fill="url(#linear-gradient-3)"/>
        </g>
        <path id="ic_call_made_24px-5" data-name="ic_call_made_24px" d="M8.667,5V6.867h6.151L4,17.684,5.316,19,16.133,8.183v6.151H18V5Z" transform="translate(28 171)" fill="#fff"/>
      </g>
    </g>
    <line id="Line_196" data-name="Line 196" x2="309" transform="translate(51 297)" fill="none" stroke="#a0a0a0" stroke-linecap="round" stroke-width="0.5"/>
    <text id="Today" transform="translate(15 301)" fill="#707070" font-size="10" font-family="NiveauGroteskMedium, Niveau Grotesk"><tspan x="0" y="0">Today</tspan></text>
    <g id="Group_501" data-name="Group 501" transform="translate(0 -53)">
      <line id="Line_239" data-name="Line 239" x2="263" transform="translate(97 489)" fill="none" stroke="#a0a0a0" stroke-linecap="round" stroke-width="0.5"/>
      <text id="_22_February_2021" data-name="22 February 2021" transform="translate(15 493)" fill="#707070" font-size="10" font-family="NiveauGroteskMedium, Niveau Grotesk"><tspan x="0" y="0">22 February 2021</tspan></text>
    </g>
    <g id="navi-bottom" transform="translate(0 726)">
      <g id="navi-bottom-2" data-name="navi-bottom" transform="translate(0 -740)">
        <g transform="matrix(1, 0, 0, 1, 0, 14)" filter="url(#navi-bottom_bar)">
          <rect id="navi-bottom_bar-2" data-name="navi-bottom / bar" width="375" height="86" transform="translate(0 726)" fill="#15173d"/>
        </g>
        <g id="icon_home_navi" data-name="icon / home / navi" transform="translate(25 740)">
          <rect id="icon_home" data-name="icon / home" width="47" height="47" fill="#15173d"/>
          <path id="ic_home_24px" d="M14.235,29V19.824h6.118V29H28V16.765h4.588L17.294,3,2,16.765H6.588V29Z" transform="translate(6.592 7.403)" fill="#fff"/>
          <text id="Home" transform="translate(9.5 48.4)" fill="#fff" font-size="10" font-family="Soleil"><tspan x="0" y="0">Home</tspan></text>
        </g>
        <g id="icon_cart" data-name="icon / cart" transform="translate(303 740)">
          <rect id="icon_cart-2" data-name="icon / cart" width="47" height="47" fill="#15173d"/>
          <path id="ic_person_24px" d="M16.5,16.5a6.25,6.25,0,1,0-6.25-6.25A6.248,6.248,0,0,0,16.5,16.5Zm0,3.125c-4.172,0-12.5,2.094-12.5,6.25V29H29V25.875C29,21.719,20.672,19.625,16.5,19.625Z" transform="translate(7 7)" fill="#0095cf"/>
          <text id="Account-2" data-name="Account" transform="translate(5 48.4)" fill="#0095cf" font-size="10" font-family="Soleil"><tspan x="0" y="0">Account</tspan></text>
        </g>
        <g id="icon_activity" data-name="icon / activity" transform="translate(118 740)">
          <rect id="icon_activity-2" data-name="icon / activity" width="47" height="47" fill="#15173d"/>
          <path id="ic_event_24px" d="M21.2,15.3a4.943,4.943,0,0,0-6.5,0,4.943,4.943,0,0,0,0,6.5,4.943,4.943,0,0,0,6.5,0A4.943,4.943,0,0,0,21.2,15.3ZM19.9,1V3.6H9.5V1H6.9V3.6H5.6A2.588,2.588,0,0,0,3.013,6.2L3,24.4A2.6,2.6,0,0,0,5.6,27H23.8a2.608,2.608,0,0,0,2.6-2.6V6.2a2.608,2.608,0,0,0-2.6-2.6H22.5V1Zm3.9,23.4H5.6V10.1H23.8Z" transform="translate(9 10)" fill="#fff"/>
          <text id="Jobs" transform="translate(13.7 48.4)" fill="#fff" font-size="10" font-family="Soleil"><tspan x="0" y="0">Jobs</tspan></text>
        </g>
        <g id="icon_report" data-name="icon / report" transform="translate(210 740)">
          <rect id="icon_report-2" data-name="icon / report" width="47" height="47" fill="#15173d"/>
          <path id="ic_mode_comment_24px" d="M21.99,4A2,2,0,0,0,20,2H4A2.006,2.006,0,0,0,2,4V16a2.006,2.006,0,0,0,2,2H18l4,4Z" transform="translate(12 12)" fill="#fff"/>
          <text id="Messages" transform="translate(1 48.4)" fill="#fff" font-size="10" font-family="Soleil"><tspan x="0" y="0">Messages</tspan></text>
        </g>
      </g>
    </g>
  </g>
</svg>
