<svg xmlns="http://www.w3.org/2000/svg" xmlns:xlink="http://www.w3.org/1999/xlink" width="3005" height="1602" viewBox="0 0 3005 1602">
  <defs>
    <clipPath id="clip-User_Flow_12">
      <rect width="3005" height="1602"/>
    </clipPath>
  </defs>
  <g id="User_Flow_12" data-name="User Flow – 12" clip-path="url(#clip-User_Flow_12)">
    <rect width="3005" height="1602" fill="#f0f0f0"/>
    <g id="form-module_topic" data-name="form-module / topic" transform="translate(0 135)">
      <rect id="form-module_core-user-flow_black" data-name="form-module / core-user-flow / black" width="3005" height="455"/>
      <text id="ACCOUNT_SCREENS" data-name="ACCOUNT SCREENS" transform="translate(200 290)" fill="#fff" font-size="200" font-family="Helvetica-Bold, Helvetica" font-weight="700"><tspan x="0" y="0">ACCOUNT SCREENS</tspan></text>
    </g>
    <g id="form-module_status" data-name="form-module / status">
      <g id="core-user-flow_light-blue" data-name="core-user-flow / light-blue" fill="#00dbdb" stroke="#707070" stroke-width="1">
        <rect width="3005" height="135" stroke="none"/>
        <rect x="0.5" y="0.5" width="3004" height="134" fill="none"/>
      </g>
      <text id="Completed_Updated_on_14.04.2021_Adrian" data-name="Completed / Updated on 14.04.2021 / @Adrian" transform="translate(200 85)" fill="#fff" font-size="55" font-family="Helvetica-Bold, Helvetica" font-weight="700"><tspan x="0" y="0">Completed / Updated on 14.04.2021 / @Adrian</tspan></text>
    </g>
  </g>
</svg>
